\definecolor{qqqqff}{rgb}{0,0,1}
\begin{tikzpicture}[line cap=round,line join=round,>=triangle 45]
\begin{axis}[
x=7cm,y=7cm,
xmin=0, xmax=1,
ymin=0, ymax=1,
xtick={0,0.25,...,1},
ytick={0.25,0.5,...,1}]
\foreach \k in {1,...,300}
\addplot [domain=0:1, samples=20] ({1/(x+\k)}, x);
\end{axis}
\end{tikzpicture}